{
  "one_time": true,
  "buttons": [
    [{
      "action": {
        "type": "text",
        "label": "Да"
      },
      "color": "positive"
    },
      {
      "action": {
        "type": "text",
        "label": "Нет"
      },
      "color": "negative"
    }

  ]
  ]
}
